{
    "parent": "block/inner_stairs",
    "textures": {
        "bottom": "nordicarcanum:blocks/calcite_brick",
        "top": "nordicarcanum:blocks/calcite_brick",
        "side": "nordicarcanum:blocks/calcite_brick"
    }
}
