{
    "parent": "block/outer_stairs",
    "textures": {
        "bottom": "nordicarcanum:blocks/juniper_plank",
        "top": "nordicarcanum:blocks/juniper_plank",
        "side": "nordicarcanum:blocks/juniper_plank"
    }
}
