{
  "type": "minecraft:crafting_shaped",
  "group": "wooden_stairs",
  "pattern": [
    "#  ",
    "## ",
    "###"
  ],
  "key": {
    "#": {
      "item": "nordicarcanum:refined_calcite_deco"
    }
  },
  "result": {
    "item": "nordicarcanum:refined_calcite_stair",
    "count": 4
  }
}